# --> Including file '/nightlies/jenkins-tests/workspace/nightly-builds/tests@2/build/REC/REC_HEAD/Rec/LumiAlgs/job/LumiFsrWriter0.py'
# <-- End of file '/nightlies/jenkins-tests/workspace/nightly-builds/tests@2/build/REC/REC_HEAD/Rec/LumiAlgs/job/LumiFsrWriter0.py'
# applying configuration of LumiFsrWriterConf
# WARNING: Using default tag dddb-20150522 for partition DDDB
# WARNING: Using default tag tt-20110126 for partition DQFLAGS
ApplicationMgr    SUCCESS
====================================================================================================================================
                                                   Welcome to Rec version HEAD
                                          running on lbbuild86.cern.ch on Sat Nov 26 10:12:03 2016
====================================================================================================================================
ApplicationMgr       INFO Application Manager Configured successfully
DetectorPersist...   INFO Added successfully Conversion service:XmlCnvSvc
DetectorDataSvc   SUCCESS Detector description database: conddb:/lhcb.xml
CounterSummarySvc    INFO Wrote xml file summary.xml
LumiSeq              INFO Member list: GaudiSequencer/writeLumiSeq, GaudiSequencer/LumiFsrSeq
RndmGenSvc.Engine    INFO Generator engine type:CLHEP::RanluxEngine
RndmGenSvc.Engine    INFO Current Seed:1234567 Luxury:3
RndmGenSvc           INFO Using Random engine:HepRndm::Engine<CLHEP::RanluxEngine>
ToolSvc.Sequenc...   INFO This machine has a speed about   2.50 times the speed of a 2.8 GHz Xeon.
writeLumiSeq         INFO Member list: bankKiller/KillAll, FileIdBankWriter
KillAll           SUCCESS bankKiller : all banks of type 'ODIN' will be kept.
KillAll           SUCCESS bankKiller : all banks of type 'HltLumiSummary' will be kept.
KillAll           SUCCESS bankKiller : all banks of type 'DAQ' will be kept.
LumiFsrSeq           INFO OR Member list: GaudiSequencer/LumiNoBeamSeq, GaudiSequencer/LumiBeamCrossingSeq, GaudiSequencer/LumiBeam1Seq, GaudiSequencer/LumiBeam2Seq, GaudiSequencer/TimeSpanSeq, EventAccounting/EventAccount
LumiNoBeamSeq        INFO Member list: LoKi::ODINFilter/FilterNoBeam, HltLumiSummaryDecoder, FilterOnLumiSummary/LumiFilter, LumiAccounting/LumiCountNoBeam
COOLConfSvc          INFO CORAL Connection Retrial Period set to 60s
COOLConfSvc          INFO CORAL Connection Retrial Time-Out set to 900s
DDDB                 INFO Connected to database "sqlite_file:/afs/cern.ch/lhcb/software/DEV/nightlies/DBASE/Det/SQLDDDB/v7r999/db/DDDB.db/DDDB"
DDDB                 INFO Using TAG "dddb-20150522"
LHCBCOND             INFO Connected to database "sqlite_file:/afs/cern.ch/lhcb/software/DEV/nightlies/DBASE/Det/SQLDDDB/v7r999/db/LHCBCOND.db/LHCBCOND"
LHCBCOND             INFO Using TAG "cond-20141002"
LumiBeamCrossin...   INFO Member list: LoKi::ODINFilter/FilterBeamCrossing, HltLumiSummaryDecoder, FilterOnLumiSummary/LumiFilter, LumiAccounting/LumiCountBeamCrossing
LumiBeam1Seq         INFO Member list: LoKi::ODINFilter/FilterBeam1, HltLumiSummaryDecoder, FilterOnLumiSummary/LumiFilter, FilterFillingScheme/FillingBeam1, LumiAccounting/LumiCountBeam1
ONLINE_2010          INFO Connected to database "sqlite_file:/afs/cern.ch/lhcb/software/DEV/nightlies/DBASE/Det/SQLDDDB/v7r999/db/ONLINE-2010.db/ONLINE"
ONLINE_2010          INFO Using TAG ""
LumiBeam2Seq         INFO Member list: LoKi::ODINFilter/FilterBeam2, HltLumiSummaryDecoder, FilterOnLumiSummary/LumiFilter, FilterFillingScheme/FillingBeam2, LumiAccounting/LumiCountBeam2
TimeSpanSeq          INFO Member list: LoKi::ODINFilter/TimeSpanFilter, TimeAccounting/TimeSpanAccounting
EventPersistenc...   INFO Added successfully Conversion service:RootCnvSvc
DstWriter            INFO Data source: EventDataSvc output: DATAFILE='testFSRout0.dst' SVC='RootCnvSvc' OPT='REC'
FileRecordPersi...   INFO Added successfully Conversion service:FileRecordCnvSvc
FSROutputStream...   INFO Data source: FileRecordDataSvc output: DATAFILE='testFSRout0.dst' SVC='FileRecordCnvSvc' OPT='REC'
EventSelector        INFO Stream:EventSelector.DataStreamTool_1 Def:DATAFILE='lfn:/lhcb/data/2012/RAW/FULL/LHCb/COLLISION12/114753/114753_0000000298.raw' SVC='LHCb::MDFSelector' OPT='READ'
HistogramPersis...WARNING Histograms saving not required.
ApplicationMgr       INFO Application Manager Initialized successfully
ApplicationMgr       INFO Application Manager Started successfully
EventSelector.D...   INFO Compression:0 Checksum:1
EventSelector     SUCCESS Reading Event record 1. Record number within stream 1: 1
EventPersistenc...   INFO Added successfully Conversion service:LHCb::RawDataCnvSvc
ONLINE_2012          INFO Connected to database "sqlite_file:/afs/cern.ch/lhcb/software/DEV/nightlies/DBASE/Det/SQLDDDB/v7r999/db/ONLINE-2012.db/ONLINE"
ONLINE_2012          INFO Using TAG ""
FileIdBankWriter     INFO RunInfo record: 2d9d961c-9898-11e1-95f3-002590121862
EventSelector.D...   INFO Cannot read more data  (Header). End-of-File reached.
EventSelector        INFO Stream:EventSelector.DataStreamTool_2 Def:DATAFILE='lfn:/lhcb/data/2012/RAW/FULL/LHCb/COLLISION12/114753/114753_0000000016.raw' SVC='LHCb::MDFSelector' OPT='READ'
EventSelector.D...   INFO Compression:0 Checksum:1
FileIdBankWriter     INFO RunInfo record: 14dceef0-9890-11e1-95f3-002590121862
ApplicationMgr       INFO Application Manager Stopped successfully
FileIdBankWriter     INFO number of files seen: 2
FilterNoBeam      SUCCESS Number of counters : 1
 |    Counter                                      |     #     |    sum     | mean/eff^* | rms/err^*  |     min     |     max     |
 |*"#passed"                                       |      1000 |          9 |( 0.900000 +- 0.298647 )%|   -------   |   -------   |
HltLumiSummaryD...   INFO Average event size :    11.0 words
LumiCountNoBeam      INFO number of files seen: 2
LumiCountNoBeam      INFO INTEGRAL: {  runs : 114753  files : 2d9d961c-9898-11e1-95f3-002590121862 14dceef0-9890-11e1-95f3-002590121862  info (key/incr/integral) : 0 9 1 / 1 9 0 / 2 9 0 / 3 9 0 / 4 9 0 / 6 9 37 / 7 9 991 / 8 9 0 / 11 9 0 / 14 9 0 / 21 9 18 / 50 9 0 / 51 9 0 / 52 9 0 / 53 9 0 / 54 9 0 / 56 9 4 / 57 9 9 / 58 9 0 / 61 9 0 / 64 9 0 / 71 9 9 /  }
FilterBeamCrossingSUCCESS Number of counters : 1
 |    Counter                                      |     #     |    sum     | mean/eff^* | rms/err^*  |     min     |     max     |
 |*"#passed"                                       |      1000 |        127 |(  12.7000 +- 1.05295  )%|   -------   |   -------   |
LumiCountBeamCr...   INFO number of files seen: 2
LumiCountBeamCr...   INFO INTEGRAL: {  runs : 114753  files : 2d9d961c-9898-11e1-95f3-002590121862 14dceef0-9890-11e1-95f3-002590121862  info (key/incr/integral) : 0 127 2595 / 1 127 7803 / 2 127 2194 / 3 127 7351 / 4 127 14 / 6 127 23536 / 7 127 205553 / 8 127 0 / 11 127 206 / 14 127 205 / 21 127 254 / 50 127 107 / 51 127 109 / 52 127 99 / 53 127 109 / 54 127 12 / 56 127 116 / 57 127 127 / 58 127 0 / 61 127 108 / 64 127 108 / 71 127 127 /  }
FilterBeam1       SUCCESS Number of counters : 1
 |    Counter                                      |     #     |    sum     | mean/eff^* | rms/err^*  |     min     |     max     |
 |*"#passed"                                       |      1000 |         29 |(  2.90000 +- 0.530651 )%|   -------   |   -------   |
LumiCountBeam1       INFO number of files seen: 2
LumiCountBeam1       INFO INTEGRAL: {  runs : 114753  files : 2d9d961c-9898-11e1-95f3-002590121862 14dceef0-9890-11e1-95f3-002590121862  info (key/incr/integral) : 0 29 10 / 1 29 18 / 2 29 1 / 3 29 1 / 4 29 0 / 6 29 113 / 7 29 3211 / 8 29 0 / 11 29 0 / 14 29 0 / 21 29 58 / 50 29 1 / 51 29 1 / 52 29 0 / 53 29 0 / 54 29 0 / 56 29 8 / 57 29 29 / 58 29 0 / 61 29 0 / 64 29 0 / 71 29 29 /  }
FilterBeam2       SUCCESS Number of counters : 1
 |    Counter                                      |     #     |    sum     | mean/eff^* | rms/err^*  |     min     |     max     |
 |*"#passed"                                       |      1000 |         21 |(  2.10000 +- 0.453420 )%|   -------   |   -------   |
LumiCountBeam2       INFO number of files seen: 2
LumiCountBeam2       INFO INTEGRAL: {  runs : 114753  files : 2d9d961c-9898-11e1-95f3-002590121862 14dceef0-9890-11e1-95f3-002590121862  info (key/incr/integral) : 0 21 0 / 1 21 0 / 2 21 0 / 3 21 0 / 4 21 0 / 6 21 17 / 7 21 2159 / 8 21 0 / 11 21 0 / 14 21 0 / 21 21 42 / 50 21 0 / 51 21 0 / 52 21 0 / 53 21 0 / 54 21 0 / 56 21 3 / 57 21 21 / 58 21 0 / 61 21 0 / 64 21 0 / 71 21 21 /  }
TimeSpanFilter    SUCCESS Number of counters : 1
 |    Counter                                      |     #     |    sum     | mean/eff^* | rms/err^*  |     min     |     max     |
 |*"#passed"                                       |      1000 |        186 |(  18.6000 +- 1.23046  )%|   -------   |   -------   |
TimeSpanAccounting   INFO number of files seen: 2
TimeSpanAccounting   INFO FSR: {  earliest : 1336427982634368 - latest : 1336431480402496 }
EventAccount         INFO Overriding status: VERIFIED with: VERIFIED
DstWriter            INFO Events output: 1000
FSROutputStream...   INFO Set up File Summary Record
FSROutputStream...   INFO Events output: 1
EventLoopMgr         INFO Histograms converted successfully according to request.
ToolSvc              INFO Removing all tools created by ToolSvc
ToolSvc.HltFactorySUCCESS Number of counters : 1
 |    Counter                                      |     #     |    sum     | mean/eff^* | rms/err^*  |     min     |     max     |
 | "# loaded from PYTHON"                          |         5 |          5 |     1.0000 |     0.0000 |      1.0000 |      1.0000 |
ToolSvc.Sequenc...   INFO --------------------------------------------------------------------------------------------------
ToolSvc.Sequenc...   INFO This machine has a speed about   2.50 times the speed of a 2.8 GHz Xeon.
ToolSvc.Sequenc...   INFO Algorithm          (millisec) |    <user> |   <clock> |      min       max    sigma | entries | total (s) |
ToolSvc.Sequenc...   INFO --------------------------------------------------------------------------------------------------
ToolSvc.Sequenc...   INFO writeLumiSeq                  |     0.110 |     0.168 |    0.065       1.1     0.06 |    1000 |     0.168 |
ToolSvc.Sequenc...   INFO   createODIN                  |     0.000 |     0.007 |    0.005       0.1     0.00 |    1000 |     0.007 |
ToolSvc.Sequenc...   INFO   KillAll                     |     0.100 |     0.149 |    0.051       0.6     0.06 |    1000 |     0.149 |
ToolSvc.Sequenc...   INFO   FileIdBankWriter            |     0.010 |     0.006 |    0.004       0.5     0.01 |    1000 |     0.007 |
ToolSvc.Sequenc...   INFO --------------------------------------------------------------------------------------------------
CounterSummarySvc    INFO filling counters...
CounterSummarySvc    INFO counters filled OK
CounterSummarySvc    INFO Wrote xml file summary.xml
RootCnvSvc           INFO Disconnected data IO:80F7B06F-18D2-DF11-92B1-003048D2BD0C [testFSRout0.dst]
ApplicationMgr       INFO Application Manager Finalized successfully
ApplicationMgr       INFO Application Manager Terminated successfully